<svg width="20" height="20" viewBox="0 0 20 20" fill="none" xmlns="http://www.w3.org/2000/svg">
<path d="M4.16667 9.99998L8.33334 14.1666L16.6667 5.83331" stroke="#FF6D03" stroke-width="2" stroke-linecap="round" stroke-linejoin="round"/>
</svg>
