<svg width="64" height="64" viewBox="0 0 64 64" fill="none" xmlns="http://www.w3.org/2000/svg">
<path d="M52.04 15.0299C51.5222 15.0299 51.1025 15.4496 51.1025 15.9674V58.0526C51.1025 58.0882 51.0736 58.1171 51.038 58.1171H17.9714C17.4537 58.1171 17.0339 58.5369 17.0339 59.0546C17.0339 59.5724 17.4537 59.9921 17.9714 59.9921H51.038C52.1075 59.9921 52.9775 59.1221 52.9775 58.0526V15.9674C52.9775 15.4496 52.5577 15.0299 52.04 15.0299Z" fill="#1A202C"/>
<path d="M55.0461 4.00801H46.4162L43.2698 0.861627C42.7142 0.306001 41.9756 0 41.1898 0H8.95325C7.88375 0 7.01375 0.870002 7.01375 1.9395V58.0525C7.01375 59.122 7.88375 59.992 8.95325 59.992H11.0218V62.0605C11.0218 63.13 11.8918 64 12.9613 64H55.0461C56.1156 64 56.9856 63.13 56.9856 62.0605V5.94764C56.9856 4.87814 56.1156 4.00801 55.0461 4.00801ZM41.9553 2.19875L50.7787 11.0221H42.0198C41.9842 11.0221 41.9553 10.9933 41.9553 10.9576V2.19875ZM55.1106 62.0606C55.1106 62.0963 55.0817 62.1251 55.0461 62.1251H12.9613C12.9256 62.1251 12.8968 62.0963 12.8968 62.0606V59.9921H13.963C14.4808 59.9921 14.9005 59.5724 14.9005 59.0546C14.9005 58.5369 14.4808 58.1171 13.963 58.1171H8.95325C8.91763 58.1171 8.88875 58.0882 8.88875 58.0526V1.9395C8.88875 1.90388 8.91763 1.875 8.95325 1.875H40.0803V10.9576C40.0803 12.0272 40.9503 12.8972 42.0198 12.8972H52.0401C52.5578 12.8972 52.9776 12.4774 52.9776 11.9596V11.7878C52.9776 11.0021 52.6716 10.2634 52.116 9.70777L48.2912 5.88301H55.0461C55.0817 5.88301 55.1106 5.91189 55.1106 5.94751V62.0606Z" fill="#1A202C"/>
<path d="M25.6489 10.7099C25.2828 10.3438 24.6891 10.3438 24.3231 10.7099L19.0195 16.0135C18.9943 16.0387 18.9534 16.0387 18.9283 16.0135L16.814 13.8993H18.4415C18.9593 13.8993 19.379 13.4795 19.379 12.9618C19.379 12.444 18.9593 12.0243 18.4415 12.0243H15.9678C15.668 12.0243 15.385 12.0947 15.1312 12.2167L14.6266 11.712C14.2605 11.3459 13.6669 11.3459 13.3009 11.712C12.9347 12.0782 12.9347 12.6718 13.3009 13.0378L14.0379 13.7748C14.0319 13.8369 14.0284 13.8999 14.0284 13.9637V19.9758C14.0284 21.0453 14.8984 21.9153 15.9679 21.9153H21.98C23.0495 21.9153 23.9195 21.0453 23.9195 19.9758V13.765L25.6489 12.0357C26.015 11.6695 26.015 11.0759 25.6489 10.7099ZM22.0445 19.9759C22.0445 20.0116 22.0156 20.0404 21.98 20.0404H15.9679C15.9323 20.0404 15.9034 20.0116 15.9034 19.9759V15.64L17.6025 17.3392C17.9806 17.7173 18.4773 17.9064 18.974 17.9064C19.4706 17.9064 19.9673 17.7173 20.3454 17.3392L22.0445 15.64V19.9759Z" fill="#1A202C"/>
<path d="M21.9801 25.0504H15.968C14.8985 25.0504 14.0285 25.9204 14.0285 26.9899V33.002C14.0285 34.0715 14.8985 34.9415 15.968 34.9415H21.9801C23.0496 34.9415 23.9196 34.0715 23.9196 33.002V26.9899C23.9196 25.9205 23.0496 25.0504 21.9801 25.0504ZM22.0446 33.002C22.0446 33.0377 22.0158 33.0665 21.9801 33.0665H15.968C15.9324 33.0665 15.9035 33.0377 15.9035 33.002V26.9899C15.9035 26.9543 15.9324 26.9254 15.968 26.9254H21.9801C22.0158 26.9254 22.0446 26.9543 22.0446 26.9899V33.002Z" fill="#1A202C"/>
<path d="M21.9801 38.0767H15.968C14.8985 38.0767 14.0285 38.9467 14.0285 40.0162V46.0283C14.0285 47.0978 14.8985 47.9678 15.968 47.9678H21.9801C23.0496 47.9678 23.9196 47.0977 23.9196 46.0283V40.0162C23.9196 38.9467 23.0496 38.0767 21.9801 38.0767ZM22.0446 46.0283C22.0446 46.0639 22.0158 46.0928 21.9801 46.0928H15.968C15.9324 46.0928 15.9035 46.0638 15.9035 46.0283V40.0162C15.9035 39.9806 15.9324 39.9517 15.968 39.9517H21.9801C22.0158 39.9517 22.0446 39.9806 22.0446 40.0162V46.0283Z" fill="#1A202C"/>
<path d="M37.0105 14.0283H27.9923C27.4746 14.0283 27.0548 14.448 27.0548 14.9658C27.0548 15.4835 27.4744 15.9033 27.9923 15.9033H37.0105C37.5282 15.9033 37.948 15.4835 37.948 14.9658C37.948 14.448 37.5282 14.0283 37.0105 14.0283Z" fill="#1A202C"/>
<path d="M45.0266 18.0364H27.9923C27.4746 18.0364 27.0548 18.4561 27.0548 18.9739C27.0548 19.4916 27.4744 19.9114 27.9923 19.9114H45.0266C45.5443 19.9114 45.9641 19.4916 45.9641 18.9739C45.9641 18.4561 45.5445 18.0364 45.0266 18.0364Z" fill="#1A202C"/>
<path d="M37.0105 27.0545H27.9923C27.4746 27.0545 27.0548 27.4743 27.0548 27.992C27.0548 28.5098 27.4744 28.9295 27.9923 28.9295H37.0105C37.5282 28.9295 37.948 28.5098 37.948 27.992C37.948 27.4743 37.5282 27.0545 37.0105 27.0545Z" fill="#1A202C"/>
<path d="M45.0266 31.0626H27.9923C27.4746 31.0626 27.0548 31.4823 27.0548 32.0001C27.0548 32.5178 27.4744 32.9376 27.9923 32.9376H45.0266C45.5443 32.9376 45.9641 32.5178 45.9641 32.0001C45.9641 31.4823 45.5445 31.0626 45.0266 31.0626Z" fill="#1A202C"/>
<path d="M37.0105 40.0807H27.9923C27.4746 40.0807 27.0548 40.5004 27.0548 41.0182C27.0548 41.5359 27.4744 41.9557 27.9923 41.9557H37.0105C37.5282 41.9557 37.948 41.5359 37.948 41.0182C37.948 40.5004 37.5282 40.0807 37.0105 40.0807Z" fill="#1A202C"/>
<path d="M45.0266 44.0887H27.9923C27.4746 44.0887 27.0548 44.5085 27.0548 45.0262C27.0548 45.544 27.4744 45.9637 27.9923 45.9637H45.0266C45.5443 45.9637 45.9641 45.544 45.9641 45.0262C45.9641 44.5085 45.5445 44.0887 45.0266 44.0887Z" fill="#1A202C"/>
</svg>
