<svg width="300" height="432" viewBox="0 0 300 432" fill="none" xmlns="http://www.w3.org/2000/svg">
<g opacity="0.1">
<mask id="mask0" mask-type="alpha" maskUnits="userSpaceOnUse" x="0" y="0" width="300" height="432">
<rect width="300" height="432" rx="16" fill="#2971F0"/>
</mask>
<g mask="url(#mask0)">
<circle cx="244" cy="56" r="198.5" stroke="white" stroke-width="35"/>
</g>
</g>
</svg>
